{
	"info": {
		"_postman_id": "32ae4a66-cf91-40b8-baf1-3b696d8437b7",
		"name": "Desafio - 2",
		"schema": "https://schema.getpostman.com/json/collection/v2.1.0/collection.json",
		"_exporter_id": "19911658"
	},
	"item": [
		{
			"name": "AuthAPI",
			"item": [
				{
					"name": "Login",
					"request": {
						"auth": {
							"type": "bearer",
							"bearer": [
								{
									"key": "token",
									"value": "eyJ0eXAiOiJKV1QiLCJhbGciOiJIUzI1NiJ9.eyJzdWIiOiIxIiwicm9sZXMiOlsidXNlciJdLCJpc3MiOiJBZG1pbiIsImV4cCI6MTY1Mzk4MDMzNH0.aIZWfogbH1tOcQT2X6Ga4Zrh5NnA6JrqkxkmzGy_0po",
									"type": "string"
								}
							]
						},
						"method": "POST",
						"header": [],
						"body": {
							"mode": "raw",
							"raw": "    {\n    \"email\": \"admin@admin.com\",\n    \"password\": \"nimda321\"\n    }",
							"options": {
								"raw": {
									"language": "json"
								}
							}
						},
						"url": {
							"raw": "http://ac1b993cc89234d74ba2f9abec9ebe7a-2062588149.us-east-1.elb.amazonaws.com/auth/login",
							"protocol": "http",
							"host": [
								"ac1b993cc89234d74ba2f9abec9ebe7a-2062588149",
								"us-east-1",
								"elb",
								"amazonaws",
								"com"
							],
							"path": [
								"auth",
								"login"
							]
						}
					},
					"response": []
				},
				{
					"name": "Authorize",
					"request": {
						"auth": {
							"type": "bearer",
							"bearer": [
								{
									"key": "token",
									"value": "Bearer eyJ0eXAiOiJKV1QiLCJhbGciOiJIUzI1NiJ9.eyJzdWIiOiJhZG1pbkBhZG1pbi5jb20iLCJyb2xlcyI6WyJST0xFX0FETUlOIl0sImlzcyI6IkFkbWluIiwiZXhwIjoxNjU1OTk4MjMzfQ.7cxgDq0gaHDLHnwDIKwrZGmMQ5nbEye7UXtYWydGAtc",
									"type": "string"
								}
							]
						},
						"method": "POST",
						"header": [],
						"body": {
							"mode": "raw",
							"raw": "{\n    \"token\": \"Bearer eyJ0eXAiOiJKV1QiLCJhbGciOiJIUzI1NiJ9.eyJzdWIiOiJoZW5yaXF1ZWNvc3RhZGVsbGltYUBnbWFpbC5jb20iLCJyb2xlcyI6WyJST0xFX1VTRVIiXSwiaXNzIjoiQWRtaW4iLCJleHAiOjE2NTUzNzQ4Njl9.Q850vWfwzwfPlSfC5F8Aj6jwvCD9nliYvpl53bDdfwE\"\n}",
							"options": {
								"raw": {
									"language": "json"
								}
							}
						},
						"url": {
							"raw": "http://ac1b993cc89234d74ba2f9abec9ebe7a-2062588149.us-east-1.elb.amazonaws.com/authorize",
							"protocol": "http",
							"host": [
								"ac1b993cc89234d74ba2f9abec9ebe7a-2062588149",
								"us-east-1",
								"elb",
								"amazonaws",
								"com"
							],
							"path": [
								"authorize"
							]
						}
					},
					"response": []
				},
				{
					"name": "VerifyProductToken",
					"request": {
						"method": "GET",
						"header": [],
						"url": {
							"raw": "http://ac1b993cc89234d74ba2f9abec9ebe7a-2062588149.us-east-1.elb.amazonaws.com/products/verify/",
							"protocol": "http",
							"host": [
								"ac1b993cc89234d74ba2f9abec9ebe7a-2062588149",
								"us-east-1",
								"elb",
								"amazonaws",
								"com"
							],
							"path": [
								"products",
								"verify",
								""
							]
						}
					},
					"response": []
				}
			]
		},
		{
			"name": "Products",
			"item": [
				{
					"name": "GetById",
					"request": {
						"method": "GET",
						"header": [],
						"url": {
							"raw": "http://ac1b993cc89234d74ba2f9abec9ebe7a-2062588149.us-east-1.elb.amazonaws.com/products/28",
							"protocol": "http",
							"host": [
								"ac1b993cc89234d74ba2f9abec9ebe7a-2062588149",
								"us-east-1",
								"elb",
								"amazonaws",
								"com"
							],
							"path": [
								"products",
								"28"
							]
						}
					},
					"response": []
				},
				{
					"name": "GetAll",
					"request": {
						"method": "GET",
						"header": [],
						"url": {
							"raw": "http://ac1b993cc89234d74ba2f9abec9ebe7a-2062588149.us-east-1.elb.amazonaws.com/products",
							"protocol": "http",
							"host": [
								"ac1b993cc89234d74ba2f9abec9ebe7a-2062588149",
								"us-east-1",
								"elb",
								"amazonaws",
								"com"
							],
							"path": [
								"products"
							]
						}
					},
					"response": []
				},
				{
					"name": "Register",
					"request": {
						"method": "POST",
						"header": [],
						"body": {
							"mode": "raw",
							"raw": "{\n    \"title\": \"Arte moderna\",\n    \"author\": \"Henrique da vinte\",\n    \"description\": \"obra boa\",\n    \"country\": \"BR\",\n    \"launchDate\": \"2022-06-01\",\n    \"isAvailable\": \"true\",\n    \"price\": \"10000\"\n}",
							"options": {
								"raw": {
									"language": "json"
								}
							}
						},
						"url": {
							"raw": "http://ac1b993cc89234d74ba2f9abec9ebe7a-2062588149.us-east-1.elb.amazonaws.com/products",
							"protocol": "http",
							"host": [
								"ac1b993cc89234d74ba2f9abec9ebe7a-2062588149",
								"us-east-1",
								"elb",
								"amazonaws",
								"com"
							],
							"path": [
								"products"
							]
						}
					},
					"response": []
				},
				{
					"name": "Delete",
					"request": {
						"method": "DELETE",
						"header": [],
						"body": {
							"mode": "raw",
							"raw": "",
							"options": {
								"raw": {
									"language": "json"
								}
							}
						},
						"url": {
							"raw": "http://ac1b993cc89234d74ba2f9abec9ebe7a-2062588149.us-east-1.elb.amazonaws.com/products/2",
							"protocol": "http",
							"host": [
								"ac1b993cc89234d74ba2f9abec9ebe7a-2062588149",
								"us-east-1",
								"elb",
								"amazonaws",
								"com"
							],
							"path": [
								"products",
								"2"
							]
						}
					},
					"response": []
				},
				{
					"name": "GetAllBetweenPrice",
					"request": {
						"method": "GET",
						"header": [],
						"url": {
							"raw": "http://ac1b993cc89234d74ba2f9abec9ebe7a-2062588149.us-east-1.elb.amazonaws.com/products",
							"protocol": "http",
							"host": [
								"ac1b993cc89234d74ba2f9abec9ebe7a-2062588149",
								"us-east-1",
								"elb",
								"amazonaws",
								"com"
							],
							"path": [
								"products"
							]
						}
					},
					"response": []
				},
				{
					"name": "Update",
					"request": {
						"method": "PATCH",
						"header": [],
						"body": {
							"mode": "raw",
							"raw": "{\n    \"title\": \"Arte moderna2\"\n}",
							"options": {
								"raw": {
									"language": "json"
								}
							}
						},
						"url": {
							"raw": "http://localhost:8080/product/3",
							"protocol": "http",
							"host": [
								"localhost"
							],
							"port": "8080",
							"path": [
								"product",
								"3"
							]
						}
					},
					"response": []
				},
				{
					"name": "GetAvailable",
					"request": {
						"method": "GET",
						"header": [],
						"url": {
							"raw": "http://ac1b993cc89234d74ba2f9abec9ebe7a-2062588149.us-east-1.elb.amazonaws.com/products/available",
							"protocol": "http",
							"host": [
								"ac1b993cc89234d74ba2f9abec9ebe7a-2062588149",
								"us-east-1",
								"elb",
								"amazonaws",
								"com"
							],
							"path": [
								"products",
								"available"
							]
						}
					},
					"response": []
				}
			]
		},
		{
			"name": "Orders",
			"item": [
				{
					"name": "Register",
					"request": {
						"auth": {
							"type": "bearer",
							"bearer": [
								{
									"key": "token",
									"value": "eyJ0eXAiOiJKV1QiLCJhbGciOiJIUzI1NiJ9.eyJzdWIiOiJhZG1pbkBhZG1pbi5jb20iLCJyb2xlcyI6WyJST0xFX0FETUlOIl0sImlzcyI6IkFkbWluIiwiZXhwIjoxNjU2MDQ2MDYyfQ.JaiRTiN_rv1-DrrQ3l683jXJfbQCGyahehGY0dB17CY",
									"type": "string"
								}
							]
						},
						"method": "POST",
						"header": [
							{
								"key": "Authorization",
								"value": "Bearer eyJ0eXAiOiJKV1QiLCJhbGciOiJIUzI1NiJ9.eyJzdWIiOiJhZG1pbkBhZG1pbi5jb20iLCJyb2xlcyI6WyJST0xFX0FETUlOIl0sImlzcyI6IkFkbWluIiwiZXhwIjoxNjU2MDQ2MDYyfQ.JaiRTiN_rv1-DrrQ3l683jXJfbQCGyahehGY0dB17CY",
								"type": "text",
								"disabled": true
							}
						],
						"body": {
							"mode": "raw",
							"raw": "{\n    \"date\": \"2002-05-27\",\n    \"status\": \"pending\",\n    \"userId\": 2,\n    \"productId\": 7\n}",
							"options": {
								"raw": {
									"language": "json"
								}
							}
						},
						"url": {
							"raw": "http://ac1b993cc89234d74ba2f9abec9ebe7a-2062588149.us-east-1.elb.amazonaws.com/orders",
							"protocol": "http",
							"host": [
								"ac1b993cc89234d74ba2f9abec9ebe7a-2062588149",
								"us-east-1",
								"elb",
								"amazonaws",
								"com"
							],
							"path": [
								"orders"
							]
						}
					},
					"response": []
				},
				{
					"name": "getAll",
					"request": {
						"auth": {
							"type": "bearer",
							"bearer": [
								{
									"key": "token",
									"value": "Bearer eyJ0eXAiOiJKV1QiLCJhbGciOiJIUzI1NiJ9.eyJzdWIiOiJhZG1pbkBhZG1pbi5jb20iLCJyb2xlcyI6WyJST0xFX0FETUlOIl0sImlzcyI6IkFkbWluIiwiZXhwIjoxNjU2MTE2NjU1fQ.VmJ-IrZAjqVwDDVwqhQt6_RM_6GiSsqHN_k-dwGELEY",
									"type": "string"
								}
							]
						},
						"method": "GET",
						"header": [],
						"url": {
							"raw": "http://ac1b993cc89234d74ba2f9abec9ebe7a-2062588149.us-east-1.elb.amazonaws.com/orders",
							"protocol": "http",
							"host": [
								"ac1b993cc89234d74ba2f9abec9ebe7a-2062588149",
								"us-east-1",
								"elb",
								"amazonaws",
								"com"
							],
							"path": [
								"orders"
							]
						}
					},
					"response": []
				},
				{
					"name": "getByID",
					"request": {
						"auth": {
							"type": "bearer",
							"bearer": [
								{
									"key": "token",
									"value": "Bearer eyJ0eXAiOiJKV1QiLCJhbGciOiJIUzI1NiJ9.eyJzdWIiOiJhZG1pbkBhZG1pbi5jb20iLCJyb2xlcyI6WyJST0xFX0FETUlOIl0sImlzcyI6IkFkbWluIiwiZXhwIjoxNjU2MTE2NjU1fQ.VmJ-IrZAjqVwDDVwqhQt6_RM_6GiSsqHN_k-dwGELEY",
									"type": "string"
								}
							]
						},
						"method": "GET",
						"header": [],
						"url": {
							"raw": "http://ac1b993cc89234d74ba2f9abec9ebe7a-2062588149.us-east-1.elb.amazonaws.com/orders/",
							"protocol": "http",
							"host": [
								"ac1b993cc89234d74ba2f9abec9ebe7a-2062588149",
								"us-east-1",
								"elb",
								"amazonaws",
								"com"
							],
							"path": [
								"orders",
								""
							]
						}
					},
					"response": []
				}
			]
		},
		{
			"name": "Users",
			"item": [
				{
					"name": "GetByID",
					"request": {
						"auth": {
							"type": "bearer",
							"bearer": [
								{
									"key": "token",
									"value": "Bearer eyJ0eXAiOiJKV1QiLCJhbGciOiJIUzI1NiJ9.eyJzdWIiOiJhZG1pbkBhZG1pbi5jb20iLCJyb2xlcyI6WyJST0xFX0FETUlOIl0sImlzcyI6IkFkbWluIiwiZXhwIjoxNjU2MTE2MjE0fQ.9sfIk-DVf5cUpc_p3z9Kvm4r-NSdQEWeSDkJT5WEyBI",
									"type": "string"
								}
							]
						},
						"method": "GET",
						"header": [],
						"url": {
							"raw": "http://ac1b993cc89234d74ba2f9abec9ebe7a-2062588149.us-east-1.elb.amazonaws.com/users/current",
							"protocol": "http",
							"host": [
								"ac1b993cc89234d74ba2f9abec9ebe7a-2062588149",
								"us-east-1",
								"elb",
								"amazonaws",
								"com"
							],
							"path": [
								"users",
								"current"
							]
						}
					},
					"response": []
				},
				{
					"name": "New Request",
					"request": {
						"method": "POST",
						"header": [],
						"body": {
							"mode": "raw",
							"raw": "{\n    \"id\": 2,\n    \"name\": \"Henrique Lima\",\n    \"birthDate\": \"2000-03-27T02:36:00.622+00:00\",\n    \"cpf\": \"02668120071\",\n    \"email\": \"henriquecostadellima@gmail.com\",\n    \"phone\": \"51995797875\",\n    \"role\": \"ROLE_USER\",\n    \"password\": \"henrique123\"\n}",
							"options": {
								"raw": {
									"language": "json"
								}
							}
						},
						"url": {
							"raw": "http://ac1b993cc89234d74ba2f9abec9ebe7a-2062588149.us-east-1.elb.amazonaws.com/users/",
							"protocol": "http",
							"host": [
								"ac1b993cc89234d74ba2f9abec9ebe7a-2062588149",
								"us-east-1",
								"elb",
								"amazonaws",
								"com"
							],
							"path": [
								"users",
								""
							]
						}
					},
					"response": []
				},
				{
					"name": "getall",
					"request": {
						"auth": {
							"type": "bearer",
							"bearer": [
								{
									"key": "token",
									"value": "Bearer eyJ0eXAiOiJKV1QiLCJhbGciOiJIUzI1NiJ9.eyJzdWIiOiJhZG1pbkBhZG1pbi5jb20iLCJyb2xlcyI6WyJST0xFX0FETUlOIl0sImlzcyI6IkFkbWluIiwiZXhwIjoxNjU2MTE2MjE0fQ.9sfIk-DVf5cUpc_p3z9Kvm4r-NSdQEWeSDkJT5WEyBI",
									"type": "string"
								}
							]
						},
						"method": "GET",
						"header": [],
						"url": {
							"raw": "http://ac1b993cc89234d74ba2f9abec9ebe7a-2062588149.us-east-1.elb.amazonaws.com/users/",
							"protocol": "http",
							"host": [
								"ac1b993cc89234d74ba2f9abec9ebe7a-2062588149",
								"us-east-1",
								"elb",
								"amazonaws",
								"com"
							],
							"path": [
								"users",
								""
							]
						}
					},
					"response": []
				}
			]
		}
	]
}